Yerler,lat,long
Ölüdeniz,36.570042,29.140289
Belcekız Plajı,36.544832,29.123722
Kelebekler Vadisi,36.496958,29.128285
Kabak Koyu,36.461351,29.125082
Kayaköy,36.577035,29.087294
Gemiler Adası,36.553281,29.069894
Likya Yolu,36.558239,29.138787
Çalış Plajı,36.667005,29.105453
Kral Mezarları,36.619083,29.118392
Fethiye Müzesi,36.623135,29.116821
Saklıkent,36.842586,30.335116
Şövalye Adası,36.650496,29.100485
Cennet Koyu,36.441213,29.131246
Katrancı Koyu,36.707716,29.033496
Günlüklü Koyu,36.707993,29.029925
Tlos ,36.559685,29.423733
Pınara,36.476189,29.274220
Telmessos,36.618515,29.117614
